Functions, tidyverse, SQLite
…
tidyr::pivot_wider(df, id_cols = c("gender"), names_from = "variable", values_from = "value")
## # A tibble: 1 × 3
##   gender happiness count
##   <chr>      <dbl> <dbl>
## 1 Male           5     5

Tidy vs base R

Reading the data

data <- readr::read_csv("../common_datasets/dataset_boys.csv", col_select = c("age","wgt","bmi","reg") )
data

# A tibble: 748 × 4
     age   wgt   bmi reg  
   <dbl> <dbl> <dbl> <chr>
 1 0.035  3.65  14.5 south
 2 0.038  3.37  11.8 south
 3 0.057  3.14  12.6 south
 4 0.06   4.27  14.4 south
 5 0.062  5.03  15.2 south
 6 0.068  4.66  15.1 south
 7 0.068  3.81  13.8 south
 8 0.071  3.89  13.8 west 
 9 0.071  3.88  12.8 west 
10 0.073  4.2   14.1 east 
# ℹ 738 more rows

Subsetting (columns)

base R

data[, c("age","bmi")]

# A tibble: 748 × 2
     age   bmi
   <dbl> <dbl>
 1 0.035  14.5
 2 0.038  11.8
 3 0.057  12.6
 4 0.06   14.4
 5 0.062  15.2
 6 0.068  15.1
 7 0.068  13.8
 8 0.071  13.8
 9 0.071  12.8
10 0.073  14.1
# ℹ 738 more rows

tidyverse

dplyr::select(data, age, bmi)

# A tibble: 748 × 2
     age   bmi
   <dbl> <dbl>
 1 0.035  14.5
 2 0.038  11.8
 3 0.057  12.6
 4 0.06   14.4
 5 0.062  15.2
 6 0.068  15.1
 7 0.068  13.8
 8 0.071  13.8
 9 0.071  12.8
10 0.073  14.1
# ℹ 738 more rows
…
Drop missing values

base R

nans <- rowSums(is.na(data[, c("bmi","reg")]))
data[!nans,]

# A tibble: 724 × 4
     age   wgt   bmi reg  
   <dbl> <dbl> <dbl> <chr>
 1 0.035  3.65  14.5 south
 2 0.038  3.37  11.8 south
 3 0.057  3.14  12.6 south
 4 0.06   4.27  14.4 south
 5 0.062  5.03  15.2 south
 6 0.068  4.66  15.1 south
 7 0.068  3.81  13.8 south
 8 0.071  3.89  13.8 west 
 9 0.071  3.88  12.8 west 
10 0.073  4.2   14.1 east 
# ℹ 714 more rows

tidyverse

tidyr::drop_na(data, 
               bmi,  reg)

# A tibble: 724 × 4
     age   wgt   bmi reg  
   <dbl> <dbl> <dbl> <chr>
 1 0.035  3.65  14.5 south
 2 0.038  3.37  11.8 south
 3 0.057  3.14  12.6 south
 4 0.06   4.27  14.4 south
 5 0.062  5.03  15.2 south
 6 0.068  4.66  15.1 south
 7 0.068  3.81  13.8 south
 8 0.071  3.89  13.8 west 
 9 0.071  3.88  12.8 west 
10 0.073  4.2   14.1 east 
# ℹ 714 more rows

Sort (by age (descending) and bmi (ascending)

base R

data[order(rev(data$age), data$bmi), ]

# A tibble: 748 × 4
     age   wgt   bmi reg  
   <dbl> <dbl> <dbl> <chr>
 1  21.2  76.5  23.1 east 
 2  20.8  78    21.8 north
 3  20.8  75.4  20.1 west 
 4  20.8  88    24.6 west 
 5  20.4  67.2  20.5 north
 6  20.4  59.8  16.8 west 
 7  20.3  69    20.7 north
 8  20.3  81.1  23.7 south
 9  20.1  89.4  25.1 east 
10  20.0  73    21.6 north
# ℹ 738 more rows

tidyverse

dplyr::arrange(data, desc(age), bmi) 

# A tibble: 748 × 4
     age   wgt   bmi reg  
   <dbl> <dbl> <dbl> <chr>
 1  21.2  76.5  23.1 east 
 2  20.8  78    21.8 north
 3  20.8  75.4  20.1 west 
 4  20.8  88    24.6 west 
 5  20.4  67.2  20.5 north
 6  20.4  59.8  16.8 west 
 7  20.3  69    20.7 north
 8  20.3  81.1  23.7 south
 9  20.1  89.4  25.1 east 
10  20.0  73    21.6 north
# ℹ 738 more rows

Creating new column in a new data frame

base R

new_data <- data
new_data$age_sqrt <- sqrt(new_data$age)
new_data

# A tibble: 748 × 5
     age   wgt   bmi reg   age_sqrt
   <dbl> <dbl> <dbl> <chr>    <dbl>
 1 0.035  3.65  14.5 south    0.187
 2 0.038  3.37  11.8 south    0.195
 3 0.057  3.14  12.6 south    0.239
 4 0.06   4.27  14.4 south    0.245
 5 0.062  5.03  15.2 south    0.249
 6 0.068  4.66  15.1 south    0.261
 7 0.068  3.81  13.8 south    0.261
 8 0.071  3.89  13.8 west     0.266
 9 0.071  3.88  12.8 west     0.266
10 0.073  4.2   14.1 east     0.270
# ℹ 738 more rows

tidyverse

new_data <- dplyr::mutate(data,
                          age_srt = sqrt(age))
new_data

# A tibble: 748 × 5
     age   wgt   bmi reg   age_srt
   <dbl> <dbl> <dbl> <chr>   <dbl>
 1 0.035  3.65  14.5 south   0.187
 2 0.038  3.37  11.8 south   0.195
 3 0.057  3.14  12.6 south   0.239
 4 0.06   4.27  14.4 south   0.245
 5 0.062  5.03  15.2 south   0.249
 6 0.068  4.66  15.1 south   0.261
 7 0.068  3.81  13.8 south   0.261
 8 0.071  3.89  13.8 west    0.266
 9 0.071  3.88  12.8 west    0.266
10 0.073  4.2   14.1 east    0.270
# ℹ 738 more rows
…
Warning in dplyr::inner_join(data, data, by = "reg"): Detected an unexpected many-to-many relationship between `x` and `y`.
ℹ Row 1 of `x` matches multiple rows in `y`.
ℹ Row 1 of `y` matches multiple rows in `x`.
ℹ If a many-to-many relationship is expected, set `relationship =
  "many-to-many"` to silence this warning.

   user  system elapsed 
   0.01    0.00    0.01 

select(merg, reg,age.x,age.y)

# A tibble: 131,422 × 3
   reg   age.x age.y
   <chr> <dbl> <dbl>
 1 south 0.035 0.035
 2 south 0.035 0.038
 3 south 0.035 0.057
 4 south 0.035 0.06 
 5 south 0.035 0.062
 6 south 0.035 0.068
 7 south 0.035 0.068
 8 south 0.035 0.084
 9 south 0.035 0.104
10 south 0.035 0.117
# ℹ 131,412 more rows
…
Bigger data

IMDB data

Their data on movies and actors is freely available at https://developer.imdb.com/non-commercial-datasets/

#Download data
download.file("https://datasets.imdbws.com/title.basics.tsv.gz", "db/title_basics.tsv.gz", mode = "wb")

data_imdb <- readr::read_delim("db/title_basics.tsv.gz", delim = "\t", na = "\\N", show_col_types = FALSE)

#10,375,265 rows, 9 columns
data_imdb

# A tibble: 12,071,056 × 9
   tconst    titleType primaryTitle      originalTitle isAdult startYear endYear
   <chr>     <chr>     <chr>             <chr>           <dbl>     <dbl>   <dbl>
 1 tt0000001 short     Carmencita        Carmencita          0      1894      NA
 2 tt0000002 short     Le clown et ses … Le clown et …       0      1892      NA
 3 tt0000003 short     Poor Pierrot      Pauvre Pierr…       0      1892      NA
 4 tt0000004 short     Un bon bock       Un bon bock         0      1892      NA
 5 tt0000005 short     Blacksmith Scene  Blacksmith S…       0      1893      NA
 6 tt0000006 short     Chinese Opium Den Chinese Opiu…       0      1894      NA
 7 tt0000007 short     Corbett and Cour… Corbett and …       0      1894      NA
 8 tt0000008 short     Edison Kinetosco… Edison Kinet…       0      1894      NA
 9 tt0000009 movie     Miss Jerry        Miss Jerry          0      1894      NA
10 tt0000010 short     Leaving the Fact… La sortie de…       0      1895      NA
# ℹ 12,071,046 more rows
# ℹ 2 more variables: runtimeMinutes <dbl>, genres <chr>
…
